%YAML 1.1
%TAG !u! tag:unity3d.com,2011:
--- !u!1045 &1
EditorBuildSettings:
  m_ObjectHideFlags: 0
  serializedVersion: 2
  m_Scenes:
  - enabled: 1
    path: Assets/Scenes/intro.unity
    guid: 7a4d37ea1d6280f45b7ad2ec2fd08cb8
  - enabled: 1
    path: Assets/Scenes/Game0.unity
    guid: 6a93671f64bfe45cfbace892d77038f1
  - enabled: 1
    path: Assets/Scenes/Game1.unity
    guid: 6112dc9d33a994ee4bd44b62deb66a9c
  - enabled: 1
    path: Assets/Scenes/Game2.unity
    guid: f5ab66228d3da47c8951e8405ba24566
  m_configObjects: {}
